plate_uuid,plate_barcode,plate_name
2f97cc06-775f-423d-9737-d69cffafbc17,63261890751401801958678672215366417431,QC.18DS-Plate-01
6016b61e-2ae7-4df8-b076-1dd529d821d9,127723811914910430525095001779951116761,QC.18DS-Plate-02
3d6419c5-1284-4c52-8c3a-17243f08d045,81602660102652126419383853503193075781,QC.18DS-Plate-03
487ad340-f48c-49dd-ab20-68a99dad9798,96342160647967904068100793233845360536,QC.18DS-Plate-04
f99e4df4-a8d8-4e97-b79c-ff0128fd8b6b,331799734983558670547774273788619623275,QC.18DS-Plate-05
818ea263-f9ec-411b-a3e3-1ce29371ed48,172211011281457355013257307992628522312,QC.18DS-Plate-06
9d0eaa62-21f6-4c43-aba8-8d1859f65c6d,208764943278754588038457719201421745261,QC.18DS-Plate-07
f4ebd396-d394-4552-9f33-9feada22086c,325556112271406490584342476422746605676,QC.18DS-Plate-08
98fb042b-12ad-4fd3-af70-eba51d1d9dc1,203346006413029108451622591640018722241,QC.18DS-Plate-09
a5f7f138-138b-4bc7-bf5d-5b976e9e1c14,220610009132109416042459828058274536468,QC.18DS-Plate-10
303685e2-46a5-48e7-a60c-a1389cbfd147,64086043315942624218510398661047865671,QC.18DS-Plate-11
7a05d910-09e8-41a5-a921-bd9e8f1140b9,162196179523653149161382600717494206649,QC.18DS-Plate-12
d2a0450b-8bb0-40e6-89eb-320a40f68b7a,279970047013201839146094599881197259642,QC.18DS-Plate-13
b12022e9-9c53-48e9-a270-69852b871314,235440216863871960663812851238005314324,QC.18DS-Plate-14
00e819fc-8496-49b8-8bf1-c5cc710521bd,1205139937950833202590708419791233469,QC.18DS-Plate-15
16cd412e-d9c3-4970-beea-d9903bdc6eff,30308758831781836361071958515188002559,QC.18DS-Plate-16
8c4d7e1a-5270-47d8-a23c-82324da83d37,186494283937051199196630531096785206583,QC.18DS-Plate-17
2dae9387-545c-4daf-93b0-8573fe8dfc83,60721711699828279370712597619794640003,QC.18DS-Plate-18
